[0]+[1]*x+[2]*y+[3]*z+[4]*x*x+[5]*y*y+[6]*z*z+[7]*x*y+[8]*x*z+[9]*y*z, ,
x = x[0],Xi, ,
y = x[1],Qx, ,
z = x[2],Qy, ,
N parameters,10, ,
N steps,25, ,
 , , , , , ,X Scan , , , , , , , , , , ,Y Scan , , , , , ,, ,
Sep/Sigma,PAR0,PAR1,PAR2,PAR3,PAR4,PAR5,PAR6,PAR7,PAR8,PAR9, ,PAR0,PAR1,PAR2,PAR3,PAR4,PAR5,PAR6,PAR7,PAR8,PAR9, ,, ,
0.00,1.000000967585947e+00,-2.212540994861456e-08,-5.058944225311279e-06,2.868473529815674e-06,-1.376436742361875e-10,1.144409179687500e-05,0.000000000000000e+00,1.265902938030194e-08,4.821714583158609e-08,-7.629394531250000e-06, ,9.999988470226526e-01,7.232525689460090e-09,-1.311302185058594e-06,5.960464477539062e-07,1.394827364720186e-09,0.000000000000000e+00,0.000000000000000e+00,3.405144610724165e-08,-7.727699369297625e-08,7.629394531250000e-06,, ,
0.25,9.990452710771933e-01,-4.294670304794241e-01,6.373405456542969e-03,6.377696990966797e-06,-2.950394760231747e-01,-1.063156127929688e-02,-3.814697265625000e-06,9.588288018352955e-01,3.473565027434233e-04,0.000000000000000e+00, ,9.990853555500507e-01,-4.165451057850316e-01,-4.053115844726562e-06,5.905508995056152e-03,-2.577967881856935e-01,-1.144409179687500e-05,-9.548187255859375e-03,-3.044315013838172e-04,9.164144368295410e-01,3.814697265625000e-05,, ,
0.50,9.962789528071880e-01,-1.672565068602763e+00,2.479305863380432e-02,1.727789640426636e-05,-1.010734521181182e+00,-4.123687744140625e-02,2.288818359375000e-05,3.727990434119761e+00,1.340936035887808e-03,-1.220703125000000e-04, ,9.964423123747110e-01,-1.622512730094547e+00,-3.933906555175781e-06,2.294564247131348e-02,-8.835362140146046e-01,2.288818359375000e-05,-3.699874877929688e-02,-1.177684413264046e-03,3.564254702543494e+00,-7.629394531250000e-06,, ,
0.75,9.919856069027446e-01,-3.601971662487260e+00,5.325505882501602e-02,3.392249345779419e-05,-1.707540467373888e+00,-8.834838867187500e-02,4.196166992187500e-05,8.007499267024741e+00,2.847320931948616e-03,-2.365112304687500e-04, ,9.923402816057205e-01,-3.495099606118117e+00,-4.291534423828125e-06,4.927933216094971e-02,-1.493943412622286e+00,1.106262207031250e-04,-7.918930053710938e-02,-2.502102356885416e-03,7.659766429129789e+00,-1.449584960937500e-04,, ,
1.00,9.865795259247534e-01,-6.031573292905821e+00,8.886997401714325e-02,5.415827035903931e-05,-1.848832679218840e+00,-1.469421386718750e-01,6.103515625000000e-05,1.336360540847295e+01,4.681781356623560e-03,-3.738403320312500e-04, ,9.871759004890919e-01,-5.854581012295238e+00,-5.364418029785156e-06,8.223330974578857e-02,-1.620516934506377e+00,1.831054687500000e-04,-1.316986083984375e-01,-4.115854429180388e-03,1.279177839089770e+01,-2.746582031250000e-04,, ,
1.25,9.805359006277286e-01,-8.747823245694315e+00,1.283771023154259e-01,7.704645395278931e-05,-9.983271305217154e-01,-2.114295959472656e-01,8.392333984375000e-05,1.930667030573551e+01,6.647287889961717e-03,-5.264282226562500e-04, ,9.814032465219498e-01,-8.494377439932855e+00,-6.794929504394531e-06,1.187940835952759e-01,-8.814608873538248e-01,2.708435058593750e-04,-1.895141601562500e-01,-5.846376253508367e-03,1.849463294609245e+01,-4.119873046875000e-04,, ,
1.50,9.743202998070046e-01,-1.154133911891222e+01,1.686538010835648e-01,1.001507043838501e-04,1.040224706988438e+00,-2.765731811523438e-01,1.144409179687500e-04,2.536696152223016e+01,8.571662176620976e-03,-6.942749023437500e-04, ,9.754672273993492e-01,-1.121147812466710e+01,-9.298324584960938e-06,1.560723781585693e-01,8.961549344225652e-01,3.318786621093750e-04,-2.479782104492188e-01,-7.541846647555417e-03,2.431967178916607e+01,-4.959106445312500e-04,, ,
1.75,9.683325853548013e-01,-1.423221091203429e+01,2.070933952927589e-01,1.223608851432800e-04,4.185322444898000e+00,-3.381385803222656e-01,1.602172851562500e-04,3.115203112632963e+01,1.032755594786749e-02,-9.002685546875000e-04, ,9.697500206530094e-01,-1.383096168034663e+01,-1.025199890136719e-05,1.916518211364746e-01,3.642782276909738e+00,4.386901855468750e-04,-3.032226562500000e-01,-9.090768286810658e-03,2.988996936185296e+01,-6.713867187500000e-04,, ,
2.00,9.628725983784534e-01,-1.668548477232019e+01,2.418149113655090e-01,1.424625515937805e-04,8.135419829829042e+00,-3.932228088378906e-01,1.716613769531250e-04,3.637820171887444e+01,1.184029304323531e-02,-1.014709472656250e-03, ,9.645379334688187e-01,-1.622115930769551e+01,-1.084804534912109e-05,2.237906455993652e-01,7.096067755992630e+00,5.340576171875000e-04,-3.526344299316406e-01,-1.042613132671022e-02,3.493105669925751e+01,-8.239746093750000e-04,, ,
2.25,9.581288696499541e-01,-1.881644133106890e+01,2.717038020491600e-01,1.590400934219360e-04,1.247983052111828e+01,-4.401626586914062e-01,1.945495605468750e-04,4.087722993820506e+01,1.308096371741385e-02,-1.129150390625000e-03, ,9.600103739649057e-01,-1.829900070357174e+01,-1.549720764160156e-05,2.514621019363403e-01,1.089736024620175e+01,5.416870117187500e-04,-3.948402404785156e-01,-1.152156134448745e-02,3.927826596263259e+01,-8.010864257812500e-04,, ,
2.50,9.541852900292724e-01,-2.058754128612667e+01,2.963301464915276e-01,1.734942197799683e-04,1.681265169410539e+01,-4.784393310546875e-01,2.288818359375000e-04,4.458450877244945e+01,1.405426918000785e-02,-1.258850097656250e-03, ,9.562473911792040e-01,-2.002726396285180e+01,-1.633167266845703e-05,2.742592096328735e-01,1.469132684331660e+01,6.103515625000000e-04,-4.292221069335938e-01,-1.238216363098132e-02,4.286636664153788e+01,-9.307861328125000e-04,, ,
2.75,9.510393802775070e-01,-2.199994061744691e+01,3.158098310232162e-01,1.839697360992432e-04,2.081401489139818e+01,-5.084724426269531e-01,2.212524414062500e-04,4.751677980090608e+01,1.478768626395777e-02,-1.304626464843750e-03, ,9.532463289797306e-01,-2.140648269701956e+01,-1.704692840576172e-05,2.922903299331665e-01,1.819732873010862e+01,6.484985351562500e-04,-4.561882019042969e-01,-1.303080182759686e-02,4.570884676583455e+01,-9.918212890625000e-04,, ,
3.00,9.486274168593809e-01,-2.308250147765870e+01,3.306205272674561e-01,1.930668950080872e-04,2.428593093298422e+01,-5.310783386230469e-01,2.365112304687500e-04,4.974636202619996e+01,1.531782401099235e-02,-1.365661621093750e-03, ,9.509457331150770e-01,-2.246433319960676e+01,-1.859664916992188e-05,3.060026168823242e-01,2.124117330537933e+01,6.675720214843750e-04,-4.765205383300781e-01,-1.350005638193608e-02,4.787347305994435e+01,-1.007080078125000e-03,, ,
3.25,9.468484845128842e-01,-2.388066607135691e+01,3.414519876241684e-01,1.992136240005493e-04,2.714895693452750e+01,-5.474319458007812e-01,2.555847167968750e-04,5.137681295242584e+01,1.568488693754944e-02,-1.434326171875000e-03, ,9.492494408041239e-01,-2.324481650198686e+01,-1.895427703857422e-05,3.160285949707031e-01,2.375250167573641e+01,6.980895996093750e-04,-4.912261962890625e-01,-1.382530827477524e-02,4.945891353130581e+01,-1.075744628906250e-03,, ,
3.50,9.455861161695793e-01,-2.444679242886103e+01,3.490667119622231e-01,2.035424113273621e-04,2.941520960478669e+01,-5.588226318359375e-01,2.632141113281250e-04,5.252285632944808e+01,1.592730581984370e-02,-1.464843750000000e-03, ,9.480460193008184e-01,-2.379881828601704e+01,-1.907348632812500e-05,3.230763673782349e-01,2.574132391651937e+01,7.209777832031250e-04,-5.014457702636719e-01,-1.404014217581562e-02,5.057526545569496e+01,-1.113891601562500e-03,, ,
3.75,9.447250603116117e-01,-2.483279863874428e+01,3.542016819119453e-01,2.064034342765808e-04,3.115359613951508e+01,-5.663871765136719e-01,2.746582031250000e-04,5.329573441400970e+01,1.607737638727258e-02,-1.502990722656250e-03, ,9.472252931445837e-01,-2.417689892684554e+01,-2.110004425048828e-05,3.278317451477051e-01,2.726761186681624e+01,7.057189941406250e-04,-5.082931518554688e-01,-1.417323560227857e-02,5.132972905146585e+01,-1.075744628906250e-03,, ,
4.00,9.441613361705095e-01,-2.508534079246115e+01,3.575123921036720e-01,2.084374427795410e-04,3.245841246196191e+01,-5.711822509765625e-01,2.746582031250000e-04,5.379398203949057e+01,1.616254438533815e-02,-1.502990722656250e-03, ,9.466882366687059e-01,-2.442455213453509e+01,-2.098083496093750e-05,3.308960199356079e-01,2.841376478248202e+01,7.171630859375000e-04,-5.125923156738281e-01,-1.424886982476181e-02,5.181751763162583e+01,-1.106262207031250e-03,, ,
4.25,9.438083568238653e-01,-2.524330140966818e+01,3.595395684242249e-01,2.094209194183350e-04,3.342661307340579e+01,-5.740432739257812e-01,2.708435058593750e-04,5.409890488647540e+01,1.620408370263249e-02,-1.495361328125000e-03, ,9.463522285223007e-01,-2.457972412655642e+01,-2.026557922363281e-05,3.327705860137939e-01,2.926464223041182e+01,7.476806640625000e-04,-5.151367187500000e-01,-1.428604326214611e-02,5.211734280284364e+01,-1.152038574218750e-03,, ,
4.50,9.435985392774455e-01,-2.533709931023975e+01,3.607011660933495e-01,2.099871635437012e-04,3.414449876947171e+01,-5.755958557128906e-01,2.708435058593750e-04,5.427364952121809e+01,1.621757406365987e-02,-1.495361328125000e-03, ,9.461525268852711e-01,-2.467211951205093e+01,-2.205371856689453e-05,3.338477611541748e-01,2.989584840163882e+01,7.133483886718750e-04,-5.165786743164062e-01,-1.429807983380726e-02,5.229041845308370e+01,-1.083374023437500e-03,, ,
4.75,9.434816582943313e-01,-2.538923367079094e+01,3.613056465983391e-01,2.105459570884705e-04,3.468204516220536e+01,-5.763130187988281e-01,2.746582031250000e-04,5.436465059970652e+01,1.621414889120842e-02,-1.518249511718750e-03, ,9.460414946079254e-01,-2.472372005499228e+01,-2.121925354003906e-05,3.344063758850098e-01,3.036872358497074e+01,7.438659667968750e-04,-5.172042846679688e-01,-1.429525210351557e-02,5.238180876736571e+01,-1.144409179687500e-03,, ,
5.00,9.434223567368463e-01,-2.541550776402543e+01,3.615707531571388e-01,2.106651663780212e-04,3.509229151270910e+01,-5.765686035156250e-01,2.517700195312500e-04,5.440435135769781e+01,1.620168454354598e-02,-1.464843750000000e-03, ,9.459853805601597e-01,-2.474997237251419e+01,-2.169609069824219e-05,3.346517086029053e-01,3.072978371324317e+01,7.362365722656250e-04,-5.174217224121094e-01,-1.428435198482703e-02,5.242303117949859e+01,-1.129150390625000e-03,, ,
5.25,9.433973414124921e-01,-2.542649154697965e+01,3.616370558738708e-01,2.107545733451843e-04,3.541344194094344e+01,-5.765151977539062e-01,2.555847167968750e-04,5.441433139493211e+01,1.618482057443771e-02,-1.487731933593750e-03, ,9.459618609398603e-01,-2.476121263913781e+01,-2.169609069824219e-05,3.347131013870239e-01,3.101254779341655e+01,7.362365722656250e-04,-5.173873901367188e-01,-1.426963026786154e-02,5.243507100134656e+01,-1.113891601562500e-03,, ,
5.50,9.433914219844155e-01,-2.542892650443967e+01,3.615970686078072e-01,2.108141779899597e-04,3.567198184325027e+01,-5.762939453125000e-01,2.861022949218750e-04,5.440826046019902e+01,1.616630841647293e-02,-1.533508300781250e-03, ,9.459565412253141e-01,-2.476403697766333e+01,-2.181529998779297e-05,3.346760272979736e-01,3.124026236199379e+01,7.209777832031250e-04,-5.172271728515625e-01,-1.425372707335981e-02,5.243123890733658e+01,-1.091003417968750e-03,, ,
5.75,9.433954150881618e-01,-2.542691330930536e+01,3.615055680274963e-01,2.105534076690674e-04,3.588579258938709e+01,-5.760612487792969e-01,2.632141113281250e-04,5.439437467328838e+01,1.614831559743379e-02,-1.495361328125000e-03, ,9.459606222808361e-01,-2.476246075423492e+01,-2.229213714599609e-05,3.345915079116821e-01,3.142862858427807e+01,7.133483886718750e-04,-5.170021057128906e-01,-1.423754593081838e-02,5.241956964191182e+01,-1.083374023437500e-03,, ,
6.00,9.434041900676675e-01,-2.542282688461419e+01,3.613921031355858e-01,2.108812332153320e-04,3.606677807996828e+01,-5.757751464843750e-01,2.670288085937500e-04,5.437737644484230e+01,1.613108994382628e-02,-1.502990722656250e-03, ,9.459691531956196e-01,-2.475881221663625e+01,-2.205371856689453e-05,3.344870805740356e-01,3.158810375252010e+01,7.171630859375000e-04,-5.167579650878906e-01,-1.422281857412599e-02,5.240466391461754e+01,-1.091003417968750e-03,, ,
, , , ,
