[0]+[1]*x+[2]*y+[3]*z+[4]*x*x+[5]*y*y+[6]*z*z+[7]*x*y+[8]*x*z+[9]*y*z, ,
x = x[0],Xi, ,
y = x[1],Qx, ,
z = x[2],Qy, ,
N parameters,10, ,
N steps,25, ,
 , , , , , ,X Scan , , , , , , , , , , ,Y Scan , , , , , ,, ,
Sep/Sigma,PAR0,PAR1,PAR2,PAR3,PAR4,PAR5,PAR6,PAR7,PAR8,PAR9, ,PAR0,PAR1,PAR2,PAR3,PAR4,PAR5,PAR6,PAR7,PAR8,PAR9, ,, ,
0.00,1.009439414367080e+00,-9.916939809918404e+00,5.162945389747620e-02,-1.094621121883392e-01,-1.134280657768250e+01,2.784919738769531e-01,5.163116455078125e-01,1.790709197521210e+01,1.793299317359924e+01,-7.061691284179688e-01, ,1.006268143653870e+00,-9.895428881049156e+00,2.223730087280273e-02,-6.075519323348999e-02,-1.135925054550171e+01,5.680465698242188e-02,1.862182617187500e-01,1.790065371990204e+01,1.787206625938416e+01,-1.839904785156250e-01,, ,
0.25,1.096496604382992e+00,-1.123351812362671e+01,-3.710942268371582e-01,-2.574912309646606e-01,-1.515552663803101e+01,8.074989318847656e-01,5.975685119628906e-01,2.136993312835693e+01,1.920724010467529e+01,-3.812103271484375e-01, ,1.205919887870550e+00,-1.207817812263966e+01,-2.826917171478271e-02,-1.292469739913940e+00,-1.781462740898132e+01,1.941947937011719e-01,2.211864471435547e+00,1.901033593714237e+01,2.436796557903290e+01,-2.886199951171875e-01,, ,
0.50,1.330569600919262e+00,-1.426135119795799e+01,-1.418042898178101e+00,-7.504389286041260e-01,-2.361352968215942e+01,2.237014770507812e+00,1.099720001220703e+00,2.911485919356346e+01,2.248899531364441e+01,2.193756103515625e-01, ,1.757617175579071e+00,-1.767224007099867e+01,-3.528652191162109e-01,-4.519511699676514e+00,-3.050483322143555e+01,-9.263763427734375e-01,5.844032287597656e+00,2.247112321853638e+01,4.037030529975891e+01,2.913825988769531e+00,, ,
0.75,1.673196684569120e+00,-1.835297316312790e+01,-3.142336986958981e+00,-1.286521613597870e+00,-3.277653408050537e+01,4.713386535644531e+00,1.585807800292969e+00,3.747642648220062e+01,2.887598907947540e+01,9.846038818359375e-01, ,2.477945476770401e+00,-2.458200052380562e+01,-9.206929206848145e-01,-8.602928638458252e+00,-4.173516273498535e+01,1.318672180175781e+00,1.356867599487305e+01,2.076785278320312e+01,6.595559525489807e+01,4.550781250000000e-01,, ,
1.00,2.096272934228182e+00,-2.347652831673622e+01,-4.630037903785706e+00,-2.552651405334473e+00,-3.822055959701538e+01,3.681228637695312e+00,3.650131225585938e-01,5.019946014881134e+01,3.414631021022797e+01,7.715042114257812e+00, ,3.163432091474533e+00,-3.282348638772964e+01,-1.167876482009888e+00,-1.275235247612000e+01,-5.510979158431292e+01,-3.834419250488281e-01,1.827022552490234e+01,2.942222917079926e+01,8.570918303728104e+01,4.499809265136719e+00,, ,
1.25,2.352336902171373e+00,-2.800365951657295e+01,-5.751245260238647e+00,-3.104024887084961e+00,-3.890464466810226e+01,3.960853576660156e+00,-2.176818847656250e-01,5.784483051300049e+01,4.193022787570953e+01,1.074775695800781e+01, ,3.740283788181841e+00,-3.879978692531586e+01,-2.362780332565308e+00,-1.528111994266510e+01,-4.849972105026245e+01,3.874893188476562e-01,2.125607299804688e+01,3.951016449928284e+01,9.571105301380157e+01,6.749870300292969e+00,, ,
1.50,2.599800761789083e+00,-3.089863044023514e+01,-6.201449692249298e+00,-4.244462609291077e+00,-3.607291901111603e+01,8.147834777832031e+00,4.833194732666016e+00,5.911857764422894e+01,5.007516336441040e+01,4.068885803222656e+00, ,3.964993119239807e+00,-4.207780338823795e+01,-3.061024665832520e+00,-1.601821911334991e+01,-3.784505271911621e+01,-1.198097229003906e+00,1.973220825195312e+01,3.683894520998001e+01,1.085587964355946e+02,1.215307617187500e+01,, ,
1.75,2.712209872901440e+00,-3.219028857350349e+01,-5.800544738769531e+00,-5.339543581008911e+00,-3.332623648643494e+01,6.801353454589844e+00,5.926239013671875e+00,5.475087904930115e+01,5.807535481452942e+01,5.390602111816406e+00, ,3.695224529132247e+00,-4.004200686141849e+01,-3.624852895736694e+00,-1.373363542556763e+01,-3.169499242305756e+01,-1.400669097900391e+00,1.495998764038086e+01,3.974184942245483e+01,9.838789892196655e+01,1.438482666015625e+01,, ,
2.00,2.683841673657298e+00,-3.199240257591009e+01,-4.603681683540344e+00,-6.305190443992615e+00,-2.556494021415710e+01,5.923606872558594e+00,8.491279602050781e+00,4.736723947525024e+01,6.379528951644897e+01,3.253860473632812e+00, ,3.176954675465822e+00,-3.435990105383098e+01,-3.984787225723267e+00,-1.006481313705444e+01,-2.361416775360703e+01,5.953674316406250e+00,1.552286529541016e+01,4.818125599622726e+01,7.074193783104420e+01,1.190559387207031e+00,, ,
2.25,2.725772559642792e+00,-3.069306984543800e+01,-4.152749195694923e+00,-7.004443109035492e+00,-1.593116110563278e+01,4.417964935302734e+00,8.970218658447266e+00,4.285306024551392e+01,6.318846878409386e+01,4.642601013183594e+00, ,2.542032971978188e+00,-2.784878545254469e+01,-4.429167389869690e+00,-5.570264458656311e+00,-1.566674423217773e+01,5.224670410156250e+00,6.891017913818359e+00,4.651616144180298e+01,5.015311145782471e+01,4.096015930175781e+00,, ,
2.50,2.713571630418301e+00,-2.983330988138914e+01,-3.318312585353851e+00,-7.725499004125595e+00,-1.779724049568176e+01,-4.837722778320312e-01,6.797565460205078e+00,3.571206450462341e+01,6.706607151031494e+01,1.147357177734375e+01, ,1.936461117118597e+00,-2.136405828595161e+01,-4.222187876701355e+00,-1.907179355621338e+00,-1.599431172013283e+01,5.195564270019531e+00,1.348533630371094e+00,4.755719327926636e+01,2.761110961437225e+01,3.484764099121094e+00,, ,
2.75,2.553281977772713e+00,-2.850726248323917e+01,-2.938450217247009e+00,-7.076161563396454e+00,-1.955840647220612e+01,2.203899383544922e+00,8.833457946777344e+00,2.880503535270691e+01,6.958780717849731e+01,5.100418090820312e+00, ,1.646839274559170e+00,-1.842675123363733e+01,-4.505562067031860e+00,2.239632606506348e-01,-1.119685548543930e+01,5.094894409179688e+00,-2.573657989501953e+00,4.925851380825043e+01,1.617371249198914e+01,4.560600280761719e+00,, ,
3.00,2.630805402994156e+00,-2.898396927118301e+01,-3.481426358222961e+00,-7.033900365233421e+00,-1.323548510670662e+01,1.751300811767578e+00,7.595317840576172e+00,3.780320763587952e+01,6.249307209253311e+01,7.596199035644531e+00, ,1.584025077521801e+00,-1.796083970367908e+01,-4.442103624343872e+00,5.615921020507812e-01,-7.635385751724243e+00,6.066009521484375e+00,-2.112056732177734e+00,4.802990734577179e+01,1.612554192543030e+01,2.488784790039062e+00,, ,
3.25,2.517936311662197e+00,-2.928762650489807e+01,-3.376576244831085e+00,-6.415849059820175e+00,-9.578540563583374e+00,2.732566833496094e+00,7.633132934570312e+00,3.802052694559097e+01,6.368724501132965e+01,5.422813415527344e+00, ,1.844217069447041e+00,-2.194842904806137e+01,-4.565407872200012e+00,-9.641103744506836e-01,-2.222623944282532e+00,3.774642944335938e+00,-2.007617950439453e+00,4.900481808185577e+01,2.861699318885803e+01,7.284729003906250e+00,, ,
3.50,2.575523197650909e+00,-3.073300164937973e+01,-3.878321968950331e+00,-6.307346537709236e+00,-5.789774894714355e+00,3.306869506835938e+00,7.274429321289062e+00,4.912578773498535e+01,5.815567672252655e+01,5.875076293945312e+00, ,2.321492128074169e+00,-2.730884093046188e+01,-4.572514533996582e+00,-4.002493023872375e+00,1.528427124023438e+00,4.272827148437500e+00,3.318386077880859e+00,4.853105100989342e+01,4.731555032730103e+01,6.317459106445312e+00,, ,
3.75,2.713200246915221e+00,-3.416041931509972e+01,-4.722010850906372e+00,-6.348655521869659e+00,3.292031288146973e-01,4.888992309570312e+00,7.514801025390625e+00,6.280102241039276e+01,5.644332027435303e+01,5.476043701171875e+00, ,2.860070724040270e+00,-3.549161937832832e+01,-3.795863389968872e+00,-8.173874139785767e+00,1.302041131258011e+01,7.185550689697266e+00,1.385153579711914e+01,4.403968954086304e+01,7.890063953399658e+01,-1.776260375976562e+00,, ,
4.00,2.804732080549002e+00,-3.649923348426819e+01,-6.208278715610504e+00,-5.499869138002396e+00,-4.866960048675537e-01,1.895572662353516e+00,1.092037200927734e+00,7.716039001941681e+01,5.084180772304535e+01,1.598952484130859e+01, ,3.522406399250031e+00,-4.342747543752193e+01,-3.743233919143677e+00,-1.244714331626892e+01,1.576085340976715e+01,2.411510467529297e+00,1.629905700683594e+01,4.370150274038315e+01,1.059869108796120e+02,7.266944885253906e+00,, ,
4.25,2.844021216034889e+00,-4.043701666221023e+01,-7.017169997096062e+00,-4.949631154537201e+00,5.670985698699951e+00,5.459194183349609e+00,2.264492034912109e+00,8.953108179569244e+01,5.197375178337097e+01,1.168350219726562e+01, ,4.184908144176006e+00,-5.285839969664812e+01,-3.756535172462463e+00,-1.663880753517151e+01,1.747770786285400e+01,2.932174682617188e+00,2.345210266113281e+01,4.327726233005524e+01,1.379329786710441e+02,6.262664794921875e+00,, ,
4.50,2.929409801959991e+00,-4.216620865464211e+01,-7.699450075626373e+00,-4.845678657293320e+00,7.414456129074097e+00,1.210343551635742e+01,7.258979797363281e+00,1.000225124657154e+02,4.791639077663422e+01,1.028312683105469e+00, ,4.821205683052540e+00,-6.131844086945057e+01,-4.129347324371338e+00,-2.031864023208618e+01,2.585223650932312e+01,-1.790077209472656e+00,2.422835159301758e+01,3.751192411780357e+01,1.716135456264019e+02,1.665889739990234e+01,, ,
4.75,3.005308149382472e+00,-4.428238204866648e+01,-8.949587658047676e+00,-4.120189070701599e+00,4.042751431465149e+00,8.360397338867188e+00,8.070983886718750e-01,1.193986449837685e+02,3.659518553689122e+01,1.211431121826172e+01, ,5.339275747537613e+00,-6.874290823936462e+01,-4.418715476989746e+00,-2.334457874298096e+01,2.469998148083687e+01,3.816596984863281e+00,3.391457748413086e+01,3.793739944696426e+01,1.961845464706421e+02,6.671363830566406e+00,, ,
5.00,3.117398729547858e+00,-4.746219116449356e+01,-9.458715021610260e+00,-4.324624657630920e+00,1.028879213333130e+01,7.491020202636719e+00,-5.731887817382812e-01,1.250287143886089e+02,4.151814395189285e+01,1.550292968750000e+01, ,5.802464947104454e+00,-7.312874636054039e+01,-3.191765308380127e+00,-2.751881504058838e+01,2.049495625495911e+01,1.873725509643555e+01,5.657896804809570e+01,3.891829764842987e+01,2.104352861642838e+02,-2.621613311767578e+01,, ,
5.25,3.089919432997704e+00,-4.803460595384240e+01,-9.559328939765692e+00,-4.065266400575638e+00,9.795583605766296e+00,1.424272918701172e+01,5.297763824462891e+00,1.396505913734436e+02,2.958239161968231e+01,2.656623840332031e+00, ,6.442231915891171e+00,-7.923459652066231e+01,-5.101614475250244e+00,-2.974714040756226e+01,3.364852428436279e+01,1.752262496948242e+01,5.618780899047852e+01,5.041287809610367e+01,2.193062940007076e+02,-1.792498016357422e+01,, ,
5.50,3.225453045219183e+00,-5.114488121867180e+01,-1.070630276203156e+01,-3.793229609727859e+00,9.955942630767822e+00,1.435666656494141e+01,3.046253204345703e+00,1.414875099062920e+02,3.802413094043732e+01,6.209243774414062e+00, ,7.173347577452660e+00,-8.617465919256210e+01,-5.536654472351074e+00,-3.395330071449280e+01,3.503727006912231e+01,6.988578796386719e+00,5.215682601928711e+01,3.508630698919296e+01,2.570113562345505e+02,3.998268127441406e+00,, ,
5.75,3.253583232872188e+00,-5.179468151926994e+01,-1.162684040516615e+01,-3.089218169450760e+00,7.898892164230347e+00,1.251095962524414e+01,-1.178932189941406e+00,1.512724452018738e+02,3.087425255775452e+01,1.268128967285156e+01, ,6.818801088986220e+00,-8.713459235429764e+01,-4.869359374046326e+00,-3.237045168876648e+01,2.872863435745239e+01,-1.120040893554688e+00,4.318943405151367e+01,4.242258955538273e+01,2.537009106874466e+02,1.749413299560547e+01,, ,
6.00,3.153441153466702e+00,-5.090157057344913e+01,-1.084895226359367e+01,-3.227998882532120e+00,7.761949658393860e+00,1.986569976806641e+01,7.038494110107422e+00,1.457335789203644e+02,3.354662799835205e+01,-3.898750305175781e+00, ,6.418962053954601e+00,-8.773956108093262e+01,-8.802696466445923e-01,-3.373031616210938e+01,3.293467712402344e+01,1.004669189453125e+00,5.337414169311523e+01,2.872534513473511e+01,2.692977526187897e+02,8.760223388671875e-01,, ,
, , , ,
