{ "fsroot_dev"  : "/home/schwick/public_html/lumipog/git-source",
  "fsroot_prod" : "/home/schwick/public_html/lumipog",
  "urlroot_dev" : "/~schwick/lumipog/git-source",
  "urlroot_prod" : "/~schwick/lumipog",
  "urlhost" : "localhost" }
